Introduction to R
…
## Packages used for this example
library(readxl)  # for reading excel data
library(tidyr)   # for data tidying functions
library(dplyr)   # for data manipulation functions
library(ggplot2) # for plotting

Import

## Import: get excel data into R
duck <- read_excel("data/Duck Islands Movement.xlsx")
round <- read_excel("data/Round Island Movement.xlsx")
round

## # A tibble: 11,258 x 20
##     SIDE SIDEN AREA2  AREA   LOC ISLAND  YEAR MONTH   DAY SAMPLE   TTY
##    <chr> <dbl> <chr> <chr> <dbl>  <chr> <dbl> <dbl> <dbl>  <dbl> <dbl>
##  1  <NA>    NA  <NA>  <NA>    NA   <NA>    NA    NA    NA     NA    NA
##  2    IN     1     5  <NA>   202  round  2001     9    24      2     1
##  3    IN     1     6     1   202  round  2004     8     4     19     1
##  4    IN     1     6     1   202  round  2004     8     6     21     1
##  5  <NA>    NA  <NA>  <NA>    NA   <NA>    NA    NA    NA     NA    NA
##  6    IN     1     5  <NA>   202  round  2001     9    24      2     1
##  7    IN     1     6  <NA>   202  round  2001    10     5     12     1
##  8    IN     1     6     1   202  round  2004    10     2     15     1
##  9    IN     1     6     1   202  round  2005     9    21      1     1
## 10    IN     1     6     1   202  round  2006     9    28      9     1
## # ... with 11,248 more rows, and 9 more variables: TAG <chr>,
## #   LENGTH <dbl>, CAT <dbl>, CLUTCH <dbl>, RECAP <dbl>, SEX <chr>,
## #   NOTCH <dbl>, X__1 <lgl>, `In/Out` <chr>

Tidy

## Tidy: combine and clean-up these data
tags <- bind_rows(duck, round) %>% 
    select(SIDE:NOTCH) %>%         
    drop_na()  %>%                
    rename_all(tolower) 
tags

## # A tibble: 13,495 x 18
##     side siden area2  area   loc island  year month   day sample   tty
##    <chr> <dbl> <chr> <chr> <dbl>  <chr> <dbl> <dbl> <dbl>  <dbl> <dbl>
##  1   OUT     2     4     4   210   duck  2004     8     7     22     1
##  2   OUT     2     4     4   210   duck  2004     9    16      7     1
##  3   OUT     2     7     4   210   duck  2004     9     7      1     1
##  4    IN     1     9     3   210   duck  2009     9    19     12     1
##  5    IN     1     8     8   210   duck  2014     9     3     41     1
##  6    IN     1    17     3   210   duck  2004     8     7     22     1
##  7   OUT     2     6     4   210   duck  2004     7    21     10     1
##  8   OUT     2     7     4   210   duck  2004     9    16      7     1
##  9    IN     1     9     3   210   duck  2004     7    12      2     1
## 10    IN     1     9     3   210   duck  2004     7    19      8     1
## # ... with 13,485 more rows, and 7 more variables: tag <chr>,
## #   length <dbl>, cat <dbl>, clutch <dbl>, recap <dbl>, sex <chr>,
## #   notch <dbl>
…
