Introduction to R
…
#Let's say we want to see how catches of legal (82.5 mm+) and non-legal size 
#have changed over time in the tagging data, compared to the average size of all
#lobsters caught:
tidy_tags <- tidy_tags %>%
    mutate(LEGAL_SIZE = LENGTH > 82.5,
           LENGTH_AVERAGE = mean(LENGTH),
           #We can also change an existing variable: 
           SIDE = tolower(SIDE)
           )

tidy_tags

mutate(): Creating and altering exisiting variables

## # A tibble: 16,179 x 20
##    SIDE  SIDEN AREA2 AREA    LOC ISLAND  YEAR MONTH   DAY SAMPLE   TTY
##    <chr> <dbl> <chr> <chr> <dbl> <chr>  <dbl> <dbl> <dbl>  <dbl> <dbl>
##  1 out       2 10    4       210 duck    2001     9    25      3     1
##  2 out       2 4     4       210 duck    2004     8     7     22     1
##  3 out       2 4     4       210 duck    2004     9    16      7     1
##  4 out       2 10    4       210 duck    2001     9    25      3     1
##  5 out       2 11    4       210 duck    2002    10     3      2     1
##  6 out       2 9     4       210 duck    2001     9    25      3     1
##  7 out       2 11    4       210 duck    2002    10     7      5     1
##  8 out       2 8     4       210 duck    2001     9    25      3     1
##  9 out       2 8     4       210 duck    2001    10     2      9     1
## 10 out       2 7     4       210 duck    2001     9    25      3     1
## # ... with 16,169 more rows, and 9 more variables: TAG <chr>,
## #   LENGTH <dbl>, CAT <dbl>, CLUTCH <dbl>, RECAP <dbl>, SEX <chr>,
## #   NOTCH <dbl>, LEGAL_SIZE <lgl>, LENGTH_AVERAGE <dbl>
…
Create a new data frame called legal_size_tags, that takes the tidy_tags data frame, creates the new LEGAL_SIZE column, and then use the filter command to exclude all of the lobsters than are less than legal size.

Exercise: working with mutate

Create a new data frame called legal_size_tags, that takes the tidy_tags data frame, creates the new LEGAL_SIZE column, and then use the filter command to exclude all of the lobsters than are less than legal size.

legal_tags <- tidy_tags %>%
    mutate(LEGAL_SIZE = LENGTH > 82.5,
           SIDE = tolower(SIDE)) %>%
    filter(LEGAL_SIZE == TRUE) 

legal_tags

## # A tibble: 12,837 x 20
##    SIDE  SIDEN AREA2 AREA    LOC ISLAND  YEAR MONTH   DAY SAMPLE   TTY
##    <chr> <dbl> <chr> <chr> <dbl> <chr>  <dbl> <dbl> <dbl>  <dbl> <dbl>
##  1 out       2 10    4       210 duck    2001     9    25      3     1
##  2 out       2 4     4       210 duck    2004     8     7     22     1
##  3 out       2 4     4       210 duck    2004     9    16      7     1
##  4 out       2 11    4       210 duck    2002    10     3      2     1
##  5 out       2 9     4       210 duck    2001     9    25      3     1
##  6 out       2 11    4       210 duck    2002    10     7      5     1
##  7 out       2 8     4       210 duck    2001     9    25      3     1
##  8 out       2 8     4       210 duck    2001    10     2      9     1
##  9 out       2 7     4       210 duck    2001     9    25      3     1
## 10 out       2 7     4       210 duck    2001    10     2      9     1
## # ... with 12,827 more rows, and 9 more variables: TAG <chr>,
## #   LENGTH <dbl>, CAT <dbl>, CLUTCH <dbl>, RECAP <dbl>, SEX <chr>,
## #   NOTCH <dbl>, LEGAL_SIZE <lgl>, LENGTH_AVERAGE <dbl>
…
tidy_tags <- tidy_tags %>%
    group_by(SEX)

tidy_tags

group_by(): breaking data into groups

#`group_by()`: breaking data into groups ####

tidy_tags <- tidy_tags %>%
    group_by(SEX)

tidy_tags

## # A tibble: 16,179 x 20
## # Groups:   SEX [2]
##    SIDE  SIDEN AREA2 AREA    LOC ISLAND  YEAR MONTH   DAY SAMPLE   TTY
##    <chr> <dbl> <chr> <chr> <dbl> <chr>  <dbl> <dbl> <dbl>  <dbl> <dbl>
##  1 out       2 10    4       210 duck    2001     9    25      3     1
##  2 out       2 4     4       210 duck    2004     8     7     22     1
##  3 out       2 4     4       210 duck    2004     9    16      7     1
##  4 out       2 10    4       210 duck    2001     9    25      3     1
##  5 out       2 11    4       210 duck    2002    10     3      2     1
##  6 out       2 9     4       210 duck    2001     9    25      3     1
##  7 out       2 11    4       210 duck    2002    10     7      5     1
##  8 out       2 8     4       210 duck    2001     9    25      3     1
##  9 out       2 8     4       210 duck    2001    10     2      9     1
## 10 out       2 7     4       210 duck    2001     9    25      3     1
## # ... with 16,169 more rows, and 9 more variables: TAG <chr>,
## #   LENGTH <dbl>, CAT <dbl>, CLUTCH <dbl>, RECAP <dbl>, SEX <chr>,
## #   NOTCH <dbl>, LEGAL_SIZE <lgl>, LENGTH_AVERAGE <dbl>
…
#Here's how you group with multiple different variables
tidy_tags <- tidy_tags %>%
    group_by(SIDE, ISLAND)

tidy_tags

group_by(): breaking data into groups

#Here's how you group with multiple different variables
tidy_tags <- tidy_tags %>%
    group_by(SIDE, ISLAND)

tidy_tags

## # A tibble: 16,179 x 20
## # Groups:   SIDE, ISLAND [4]
##    SIDE  SIDEN AREA2 AREA    LOC ISLAND  YEAR MONTH   DAY SAMPLE   TTY
##    <chr> <dbl> <chr> <chr> <dbl> <chr>  <dbl> <dbl> <dbl>  <dbl> <dbl>
##  1 out       2 10    4       210 duck    2001     9    25      3     1
##  2 out       2 4     4       210 duck    2004     8     7     22     1
##  3 out       2 4     4       210 duck    2004     9    16      7     1
##  4 out       2 10    4       210 duck    2001     9    25      3     1
##  5 out       2 11    4       210 duck    2002    10     3      2     1
##  6 out       2 9     4       210 duck    2001     9    25      3     1
##  7 out       2 11    4       210 duck    2002    10     7      5     1
##  8 out       2 8     4       210 duck    2001     9    25      3     1
##  9 out       2 8     4       210 duck    2001    10     2      9     1
## 10 out       2 7     4       210 duck    2001     9    25      3     1
## # ... with 16,169 more rows, and 9 more variables: TAG <chr>,
## #   LENGTH <dbl>, CAT <dbl>, CLUTCH <dbl>, RECAP <dbl>, SEX <chr>,
## #   NOTCH <dbl>, LEGAL_SIZE <lgl>, LENGTH_AVERAGE <dbl>
…
lobster_growth_rates = legal_tags %>%
    group_by(TAG, SEX, ISLAND)%>%
    filter(max(YEAR)>min(YEAR))%>%
    summarize(LENGTH_START = min(LENGTH),
              GROWTH_RATE = (max(LENGTH)-min(LENGTH))/(max(YEAR)-min(YEAR)))%>%
    ungroup()

lobster_growth_rates

Using summarize() to learn about your data:

summarize can also be used to do some pretty useful data sorting, when combined with different verbs:

## # A tibble: 2,749 x 5
##    TAG     SEX   ISLAND LENGTH_START GROWTH_RATE
##    <chr>   <chr> <chr>         <dbl>       <dbl>
##  1 DF30007 M     duck             86        4.67
##  2 DF30012 M     duck            106        0   
##  3 DF30029 M     duck            109        1   
##  4 DF30030 M     duck             90        5   
##  5 DF30031 F     duck             86        1.85
##  6 DF30036 M     duck             97        7   
##  7 DF30041 M     duck             92        5.33
##  8 DF30065 M     duck             98        4.67
##  9 DF30070 M     duck             83        4.33
## 10 DF30071 M     duck            110        4   
## # ... with 2,739 more rows
…
